<?xml version="1.0" encoding="UTF-8" standalone="no"?>
<!DOCTYPE svg PUBLIC "-//W3C//DTD SVG 1.1//EN"
 "http://www.w3.org/Graphics/SVG/1.1/DTD/svg11.dtd">
<!-- Generated by graphviz version 2.48.0 (0)
 -->
<!-- Pages: 1 -->
<svg width="277pt" height="444pt"
 viewBox="0.00 0.00 277.00 443.70" xmlns="http://www.w3.org/2000/svg" xmlns:xlink="http://www.w3.org/1999/xlink">
<g id="graph0" class="graph" transform="scale(1 1) rotate(0) translate(4 439.7)">
<!-- <polygon fill="white" stroke="transparent" points="-4,4 -4,-439.7 273,-439.7 273,4 -4,4"/> -->
<text fill="white" text-anchor="middle" x="134.5" y="-7.8" font-family="Times,serif" font-size="14.00">Added node (after taking snapshot)</text>
<!-- p0x6040000001d0 -->
<g id="node1" class="node">
<title>p0x6040000001d0</title>
<ellipse fill="none" stroke="white" cx="90.32" cy="-408.83" rx="32.55" ry="26.74"/>
<text fill="white" text-anchor="middle" x="90.32" y="-412.63" font-family="Times,serif" font-size="14.00">0</text>
<text fill="white" text-anchor="middle" x="90.32" y="-397.63" font-family="Times,serif" font-size="14.00">tree</text>
</g>
<!-- p0x604000000050 -->
<g id="node2" class="node">
<title>p0x604000000050</title>
<ellipse fill="none" stroke="white" cx="53.32" cy="-319.09" rx="27.65" ry="26.74"/>
<text fill="white" text-anchor="middle" x="53.32" y="-322.89" font-family="Times,serif" font-size="14.00">&#45;10</text>
<text fill="white" text-anchor="middle" x="53.32" y="-307.89" font-family="Times,serif" font-size="14.00">foo</text>
</g>
<!-- p0x6040000001d0&#45;&gt;p0x604000000050 -->
<g id="edge1" class="edge">
<title>p0x6040000001d0&#45;&gt;p0x604000000050</title>
<path fill="none" stroke="white" d="M79.81,-382.92C74.69,-370.76 68.54,-356.2 63.47,-344.15"/>
</g>
<!-- p0x604000000210 -->
<g id="node4" class="node">
<title>p0x604000000210</title>
<ellipse fill="none" stroke="white" cx="128.32" cy="-319.09" rx="28.98" ry="26.74"/>
<text fill="white" text-anchor="middle" x="128.32" y="-322.89" font-family="Times,serif" font-size="14.00">10</text>
<text fill="white" text-anchor="middle" x="128.32" y="-307.89" font-family="Times,serif" font-size="14.00">baz</text>
</g>
<!-- p0x6040000001d0&#45;&gt;p0x604000000210 -->
<g id="edge3" class="edge">
<title>p0x6040000001d0&#45;&gt;p0x604000000210</title>
<path fill="none" stroke="white" d="M100.9,-383.39C106.17,-371.22 112.53,-356.55 117.79,-344.4"/>
</g>
<!-- p0x604000000090 -->
<g id="node3" class="node">
<title>p0x604000000090</title>
<ellipse fill="none" stroke="white" cx="52.32" cy="-229.35" rx="28.98" ry="26.74"/>
<text fill="white" text-anchor="middle" x="52.32" y="-233.15" font-family="Times,serif" font-size="14.00">&#45;5</text>
<text fill="white" text-anchor="middle" x="52.32" y="-218.15" font-family="Times,serif" font-size="14.00">bar</text>
</g>
<!-- p0x604000000050&#45;&gt;p0x604000000090 -->
<g id="edge2" class="edge">
<title>p0x604000000050&#45;&gt;p0x604000000090</title>
<path fill="none" stroke="white" d="M53.02,-291.77C52.89,-280.56 52.74,-267.52 52.61,-256.35"/>
</g>
<!-- p0x604000000250 -->
<g id="node5" class="node">
<title>p0x604000000250</title>
<ellipse fill="none" stroke="white" cx="128.32" cy="-229.35" rx="28.98" ry="26.74"/>
<text fill="white" text-anchor="middle" x="128.32" y="-233.15" font-family="Times,serif" font-size="14.00">5</text>
<text fill="white" text-anchor="middle" x="128.32" y="-218.15" font-family="Times,serif" font-size="14.00">fizz</text>
</g>
<!-- p0x604000000210&#45;&gt;p0x604000000250 -->
<g id="edge4" class="edge">
<title>p0x604000000210&#45;&gt;p0x604000000250</title>
<path fill="none" stroke="white" d="M128.32,-291.77C128.32,-280.56 128.32,-267.52 128.32,-256.35"/>
</g>
<!-- p0x604000000150 -->
<g id="node8" class="node">
<title>p0x604000000150</title>
<ellipse fill="none" stroke="white" cx="210.32" cy="-229.35" rx="35.21" ry="26.74"/>
<text fill="white" text-anchor="middle" x="210.32" y="-233.15" font-family="Times,serif" font-size="14.00">15</text>
<text fill="white" text-anchor="middle" x="210.32" y="-218.15" font-family="Times,serif" font-size="14.00">buzz</text>
</g>
<!-- p0x604000000210&#45;&gt;p0x604000000150 -->
<g id="edge7" class="edge">
<title>p0x604000000210&#45;&gt;p0x604000000150</title>
<path fill="none" stroke="white" d="M146.93,-298.18C159.87,-284.33 177.12,-265.88 190.35,-251.71"/>
</g>
<!-- p0x604000000290 -->
<g id="node6" class="node">
<title>p0x604000000290</title>
<ellipse fill="none" stroke="white" cx="128.32" cy="-139.61" rx="39.7" ry="26.74"/>
<text fill="white" text-anchor="middle" x="128.32" y="-143.41" font-family="Times,serif" font-size="14.00">7</text>
<text fill="white" text-anchor="middle" x="128.32" y="-128.41" font-family="Times,serif" font-size="14.00">pippo</text>
</g>
<!-- p0x604000000250&#45;&gt;p0x604000000290 -->
<g id="edge5" class="edge">
<title>p0x604000000250&#45;&gt;p0x604000000290</title>
<path fill="none" stroke="white" d="M128.32,-202.03C128.32,-190.82 128.32,-177.78 128.32,-166.61"/>
</g>
<!-- p0x6040000002d0 -->
<g id="node7" class="node">
<title>p0x6040000002d0</title>
<ellipse fill="none" stroke="white" cx="128.32" cy="-49.87" rx="37.45" ry="26.74"/>
<text fill="white" text-anchor="middle" x="128.32" y="-53.67" font-family="Times,serif" font-size="14.00">6</text>
<text fill="white" text-anchor="middle" x="128.32" y="-38.67" font-family="Times,serif" font-size="14.00">pluto</text>
</g>
<!-- p0x604000000290&#45;&gt;p0x6040000002d0 -->
<g id="edge6" class="edge">
<title>p0x604000000290&#45;&gt;p0x6040000002d0</title>
<path fill="none" stroke="white" d="M128.32,-112.29C128.32,-101.08 128.32,-88.04 128.32,-76.87"/>
</g>
</g>
</svg>
