<?xml version="1.0" encoding="UTF-8" standalone="no"?>
<!DOCTYPE svg PUBLIC "-//W3C//DTD SVG 1.1//EN"
 "http://www.w3.org/Graphics/SVG/1.1/DTD/svg11.dtd">
<!-- Generated by graphviz version 2.48.0 (0)
 -->
<!-- Pages: 1 -->
<svg width="380pt" height="444pt"
 viewBox="0.00 0.00 379.57 443.70" xmlns="http://www.w3.org/2000/svg" xmlns:xlink="http://www.w3.org/1999/xlink">
<g id="graph0" class="graph" transform="scale(1 1) rotate(0) translate(4 439.7)">
<!-- <polygon fill="white" stroke="transparent" points="-4,4 -4,-439.7 375.57,-439.7 375.57,4 -4,4"/> -->
<text fill="white" text-anchor="middle" x="185.78" y="-7.8" font-family="Times,serif" font-size="14.00">Structural sharing after another edit</text>
<!-- p0x604000000010 -->
<g id="node1" class="node">
<title>p0x604000000010</title>
<ellipse fill="none" stroke="white" cx="67.99" cy="-408.83" rx="32.55" ry="26.74"/>
<text fill="white" text-anchor="middle" x="67.99" y="-412.63" font-family="Times,serif" font-size="14.00">0</text>
<text fill="white" text-anchor="middle" x="67.99" y="-397.63" font-family="Times,serif" font-size="14.00">tree</text>
</g>
<!-- p0x604000000050 -->
<g id="node2" class="node">
<title>p0x604000000050</title>
<ellipse fill="none" stroke="white" cx="29.99" cy="-319.09" rx="27.65" ry="26.74"/>
<text fill="white" text-anchor="middle" x="29.99" y="-322.89" font-family="Times,serif" font-size="14.00">&#45;10</text>
<text fill="white" text-anchor="middle" x="29.99" y="-307.89" font-family="Times,serif" font-size="14.00">foo</text>
</g>
<!-- p0x604000000010&#45;&gt;p0x604000000050 -->
<g id="edge1" class="edge">
<title>p0x604000000010&#45;&gt;p0x604000000050</title>
<path fill="none" stroke="white" d="M57.41,-383.39C52.09,-371.12 45.68,-356.31 40.39,-344.1"/>
</g>
<!-- p0x6040000000d0 -->
<g id="node4" class="node">
<title>p0x6040000000d0</title>
<ellipse fill="none" stroke="white" cx="104.99" cy="-319.09" rx="28.98" ry="26.74"/>
<text fill="white" text-anchor="middle" x="104.99" y="-322.89" font-family="Times,serif" font-size="14.00">10</text>
<text fill="white" text-anchor="middle" x="104.99" y="-307.89" font-family="Times,serif" font-size="14.00">baz</text>
</g>
<!-- p0x604000000010&#45;&gt;p0x6040000000d0 -->
<g id="edge3" class="edge">
<title>p0x604000000010&#45;&gt;p0x6040000000d0</title>
<path fill="none" stroke="white" d="M78.5,-382.92C83.58,-370.86 89.66,-356.44 94.72,-344.45"/>
</g>
<!-- p0x604000000090 -->
<g id="node3" class="node">
<title>p0x604000000090</title>
<ellipse fill="none" stroke="white" cx="28.99" cy="-229.35" rx="28.98" ry="26.74"/>
<text fill="white" text-anchor="middle" x="28.99" y="-233.15" font-family="Times,serif" font-size="14.00">&#45;5</text>
<text fill="white" text-anchor="middle" x="28.99" y="-218.15" font-family="Times,serif" font-size="14.00">bar</text>
</g>
<!-- p0x604000000050&#45;&gt;p0x604000000090 -->
<g id="edge2" class="edge">
<title>p0x604000000050&#45;&gt;p0x604000000090</title>
<path fill="none" stroke="white" d="M29.69,-291.77C29.56,-280.56 29.42,-267.52 29.29,-256.35"/>
</g>
<!-- p0x604000000110 -->
<g id="node5" class="node">
<title>p0x604000000110</title>
<ellipse fill="none" stroke="white" cx="104.99" cy="-229.35" rx="28.98" ry="26.74"/>
<text fill="white" text-anchor="middle" x="104.99" y="-233.15" font-family="Times,serif" font-size="14.00">5</text>
<text fill="white" text-anchor="middle" x="104.99" y="-218.15" font-family="Times,serif" font-size="14.00">fizz</text>
</g>
<!-- p0x6040000000d0&#45;&gt;p0x604000000110 -->
<g id="edge4" class="edge">
<title>p0x6040000000d0&#45;&gt;p0x604000000110</title>
<path fill="none" stroke="white" d="M104.99,-291.77C104.99,-280.56 104.99,-267.52 104.99,-256.35"/>
</g>
<!-- p0x604000000150 -->
<g id="node7" class="node">
<title>p0x604000000150</title>
<ellipse fill="none" stroke="white" cx="186.99" cy="-229.35" rx="35.21" ry="26.74"/>
<text fill="white" text-anchor="middle" x="186.99" y="-233.15" font-family="Times,serif" font-size="14.00">15</text>
<text fill="white" text-anchor="middle" x="186.99" y="-218.15" font-family="Times,serif" font-size="14.00">buzz</text>
</g>
<!-- p0x6040000000d0&#45;&gt;p0x604000000150 -->
<g id="edge6" class="edge">
<title>p0x6040000000d0&#45;&gt;p0x604000000150</title>
<path fill="none" stroke="white" d="M123.6,-298.18C136.55,-284.33 153.79,-265.88 167.03,-251.71"/>
</g>
<!-- p0x604000000190 -->
<g id="node6" class="node">
<title>p0x604000000190</title>
<ellipse fill="none" stroke="white" cx="104.99" cy="-139.61" rx="39.7" ry="26.74"/>
<text fill="white" text-anchor="middle" x="104.99" y="-143.41" font-family="Times,serif" font-size="14.00">7</text>
<text fill="white" text-anchor="middle" x="104.99" y="-128.41" font-family="Times,serif" font-size="14.00">pippo</text>
</g>
<!-- p0x604000000110&#45;&gt;p0x604000000190 -->
<g id="edge5" class="edge">
<title>p0x604000000110&#45;&gt;p0x604000000190</title>
<path fill="none" stroke="white" d="M104.99,-202.03C104.99,-190.82 104.99,-177.78 104.99,-166.61"/>
</g>
<!-- p0x6040000001d0 -->
<g id="node8" class="node">
<title>p0x6040000001d0</title>
<ellipse fill="none" stroke="white" cx="305.99" cy="-408.83" rx="32.55" ry="26.74"/>
<text fill="white" text-anchor="middle" x="305.99" y="-412.63" font-family="Times,serif" font-size="14.00">0</text>
<text fill="white" text-anchor="middle" x="305.99" y="-397.63" font-family="Times,serif" font-size="14.00">tree</text>
</g>
<!-- p0x604000000310 -->
<g id="node9" class="node">
<title>p0x604000000310</title>
<ellipse fill="none" stroke="white" cx="343.99" cy="-319.09" rx="27.65" ry="26.74"/>
<text fill="white" text-anchor="middle" x="343.99" y="-322.89" font-family="Times,serif" font-size="14.00">&#45;10</text>
<text fill="white" text-anchor="middle" x="343.99" y="-307.89" font-family="Times,serif" font-size="14.00">foo</text>
</g>
<!-- p0x6040000001d0&#45;&gt;p0x604000000310 -->
<g id="edge7" class="edge">
<title>p0x6040000001d0&#45;&gt;p0x604000000310</title>
<path fill="none" stroke="white" d="M316.58,-383.39C321.89,-371.12 328.31,-356.31 333.59,-344.1"/>
</g>
<!-- p0x604000000210 -->
<g id="node11" class="node">
<title>p0x604000000210</title>
<ellipse fill="none" stroke="white" cx="268.99" cy="-319.09" rx="28.98" ry="26.74"/>
<text fill="white" text-anchor="middle" x="268.99" y="-322.89" font-family="Times,serif" font-size="14.00">10</text>
<text fill="white" text-anchor="middle" x="268.99" y="-307.89" font-family="Times,serif" font-size="14.00">baz</text>
</g>
<!-- p0x6040000001d0&#45;&gt;p0x604000000210 -->
<g id="edge9" class="edge">
<title>p0x6040000001d0&#45;&gt;p0x604000000210</title>
<path fill="none" stroke="white" d="M295.49,-382.92C290.4,-370.86 284.32,-356.44 279.27,-344.45"/>
</g>
<!-- p0x604000000350 -->
<g id="node10" class="node">
<title>p0x604000000350</title>
<ellipse fill="none" stroke="white" cx="343.99" cy="-229.35" rx="27.65" ry="26.74"/>
<text fill="white" text-anchor="middle" x="343.99" y="-233.15" font-family="Times,serif" font-size="14.00">&#45;5</text>
<text fill="white" text-anchor="middle" x="343.99" y="-218.15" font-family="Times,serif" font-size="14.00">car</text>
</g>
<!-- p0x604000000310&#45;&gt;p0x604000000350 -->
<g id="edge8" class="edge">
<title>p0x604000000310&#45;&gt;p0x604000000350</title>
<path fill="none" stroke="white" d="M343.99,-291.77C343.99,-280.56 343.99,-267.52 343.99,-256.35"/>
</g>
<!-- p0x604000000210&#45;&gt;p0x604000000150 -->
<g id="edge13" class="edge">
<title>p0x604000000210&#45;&gt;p0x604000000150</title>
<path fill="none" stroke="white" d="M250.38,-298.18C237.44,-284.33 220.19,-265.88 206.96,-251.71"/>
</g>
<!-- p0x604000000250 -->
<g id="node12" class="node">
<title>p0x604000000250</title>
<ellipse fill="none" stroke="white" cx="268.99" cy="-229.35" rx="28.98" ry="26.74"/>
<text fill="white" text-anchor="middle" x="268.99" y="-233.15" font-family="Times,serif" font-size="14.00">5</text>
<text fill="white" text-anchor="middle" x="268.99" y="-218.15" font-family="Times,serif" font-size="14.00">fizz</text>
</g>
<!-- p0x604000000210&#45;&gt;p0x604000000250 -->
<g id="edge10" class="edge">
<title>p0x604000000210&#45;&gt;p0x604000000250</title>
<path fill="none" stroke="white" d="M268.99,-291.77C268.99,-280.56 268.99,-267.52 268.99,-256.35"/>
</g>
<!-- p0x604000000290 -->
<g id="node13" class="node">
<title>p0x604000000290</title>
<ellipse fill="none" stroke="white" cx="268.99" cy="-139.61" rx="39.7" ry="26.74"/>
<text fill="white" text-anchor="middle" x="268.99" y="-143.41" font-family="Times,serif" font-size="14.00">7</text>
<text fill="white" text-anchor="middle" x="268.99" y="-128.41" font-family="Times,serif" font-size="14.00">pippo</text>
</g>
<!-- p0x604000000250&#45;&gt;p0x604000000290 -->
<g id="edge11" class="edge">
<title>p0x604000000250&#45;&gt;p0x604000000290</title>
<path fill="none" stroke="white" d="M268.99,-202.03C268.99,-190.82 268.99,-177.78 268.99,-166.61"/>
</g>
<!-- p0x6040000002d0 -->
<g id="node14" class="node">
<title>p0x6040000002d0</title>
<ellipse fill="none" stroke="white" cx="268.99" cy="-49.87" rx="37.45" ry="26.74"/>
<text fill="white" text-anchor="middle" x="268.99" y="-53.67" font-family="Times,serif" font-size="14.00">6</text>
<text fill="white" text-anchor="middle" x="268.99" y="-38.67" font-family="Times,serif" font-size="14.00">pluto</text>
</g>
<!-- p0x604000000290&#45;&gt;p0x6040000002d0 -->
<g id="edge12" class="edge">
<title>p0x604000000290&#45;&gt;p0x6040000002d0</title>
<path fill="none" stroke="white" d="M268.99,-112.29C268.99,-101.08 268.99,-88.04 268.99,-76.87"/>
</g>
</g>
</svg>
